Data Masking
…
The following script creates a function to group a dataset based on one variable, and then calculate the mean of a second variable for each group. Here var1 and var2 are treated as data-variables. While defining the function, they are accessed in group_by() and summarise() with doubled curly braces { var }.

func_uniqueLevels <- function(mydata, var1, var2){
  mydata %>% 
    # wrap var1 and var2 in '{{ }}' 
    group_by({{ var1 }}) %>% 
    summarise(mean = mean({{ var2 }}, na.rm = T ))
}

starwars2 %>% 
  # calculate height for each type of hair color
  func_uniqueLevels(var1 = hair_color, var2 = height)

  # A tibble: 12 × 2
    hair_color     mean
    <chr>         <dbl>
  1 auburn         150 
  2 auburn, grey   180 
  3 auburn, white  182 
  4 black          174.
  # ℹ 8 more rows
…
Name after data-variables with { }

If the name of a newly created column is derived from data-variables, wrap the column name in double curly brackets { } and in quote. The function below names the new column as the original column names connected with a hyphen.

func.paste <- function(mydata, var1, var2){
  mydata %>% 
    # new column name in double curly brackets
    mutate("{{var1}}-{{var2}}" := paste({{var1}}, "-", {{var2}}),
           .before = 2) # new column as the 2nd column
}

# Note! The new column is output as the 2nd column
starwars2 %>% func.paste(var1 = height, var2 = mass)

  # A tibble: 87 × 6
    name           `height-mass` height  mass hair_color skin_color 
    <chr>          <chr>          <int> <dbl> <chr>      <chr>      
  1 Luke Skywalker 172 - 77         172    77 blond      fair       
  2 C-3PO          167 - 75         167    75 <NA>       gold       
  3 R2-D2          96 - 32           96    32 <NA>       white, blue
  4 Darth Vader    202 - 136        202   136 none       white      
  # ℹ 83 more rows
…
