Repeat Operations Across Multiple Columns
…
  # A tibble: 1 × 2
    height_mean mass_mean
          <dbl>     <dbl>
  1        175.      97.3

The grouping variables (specified inside group_by) are not selected by across(). In the example below, unique values are counted in all character columns separately for each kind of hair color (the grouping variable); although “hair_color” is also a character variable, it is not included in across().

starwars2 %>% 
  group_by(hair_color) %>% 
  summarise(across(where(is.character), n_distinct))

  # A tibble: 12 × 3
    hair_color     name skin_color
    <chr>         <int>      <int>
  1 auburn            1          1
  2 auburn, grey      1          1
  3 auburn, white     1          1
  4 black            13          7
  # ℹ 8 more rows
…
🎁 Bonus skill

The use of across() with mutate() and other dplyr verbs works the same way. The following example scales all numeric variables to a range of 0 to 1.

# define function scaling a numeric vector to range of [0, 1]
rescale_0_1 <- function(x) {
  minim <- min(x, na.rm = T)
  maxim <- max(x, na.rm = T)
  (x - minim) / (maxim - minim)
}

# overwrite the original columns with scaled values
starwars2 %>% mutate(across(where(is.numeric), rescale_0_1))

  # A tibble: 87 × 5
    name           height   mass hair_color skin_color 
    <chr>           <dbl>  <dbl> <chr>      <chr>      
  1 Luke Skywalker  0.535 0.0462 blond      fair       
  2 C-3PO           0.510 0.0447 <NA>       gold       
  3 R2-D2           0.152 0.0127 <NA>       white, blue
  4 Darth Vader     0.687 0.0901 none       white      
  # ℹ 83 more rows

# keep original columns,
# include scaled values as new columns with suffix "_scaled"
starwars2 %>% mutate(across(
  where(is.numeric), rescale_0_1, .names = "{.col}_scaled"),
  # put new columns after the "mass" column
  .after = mass)

  # A tibble: 87 × 7
    name           height  mass height_scaled mass_scaled hair_color skin_color 
    <chr>           <int> <dbl>         <dbl>       <dbl> <chr>      <chr>      
  1 Luke Skywalker    172    77         0.535      0.0462 blond      fair       
  2 C-3PO             167    75         0.510      0.0447 <NA>       gold       
  3 R2-D2              96    32         0.152      0.0127 <NA>       white, blue
  4 Darth Vader       202   136         0.687      0.0901 none       white      
  # ℹ 83 more rows
