Select Rows of a dataset
…
# select the 3rd to 5th row
starwars2 %>% slice(3:5)

  # A tibble: 3 × 5
    name        height  mass hair_color skin_color 
    <chr>        <int> <dbl> <chr>      <chr>      
  1 R2-D2           96    32 <NA>       white, blue
  2 Darth Vader    202   136 none       white      
  3 Leia Organa    150    49 brown      light

# drop the first four rows
starwars2 %>% slice(-(1:4))

  # A tibble: 83 × 5
    name               height  mass hair_color  skin_color
    <chr>               <int> <dbl> <chr>       <chr>     
  1 Leia Organa           150    49 brown       light     
  2 Owen Lars             178   120 brown, grey light     
  3 Beru Whitesun Lars    165    75 brown       light     
  4 R5-D4                  97    32 <NA>        white, red
  # ℹ 79 more rows
…
# select the top 3 rows
starwars2 %>% slice_head(n = 3)

  # A tibble: 3 × 5
    name           height  mass hair_color skin_color 
    <chr>           <int> <dbl> <chr>      <chr>      
  1 Luke Skywalker    172    77 blond      fair       
  2 C-3PO             167    75 <NA>       gold       
  3 R2-D2              96    32 <NA>       white, blue

# select the first 10% of the rows
starwars2 %>% slice_head(prop = .1)

  # A tibble: 8 × 5
    name           height  mass hair_color skin_color 
    <chr>           <int> <dbl> <chr>      <chr>      
  1 Luke Skywalker    172    77 blond      fair       
  2 C-3PO             167    75 <NA>       gold       
  3 R2-D2              96    32 <NA>       white, blue
  4 Darth Vader       202   136 none       white      
  # ℹ 4 more rows

When the dataset has grouping variables (i.e., specified by group_by()), the slicing will be applied respectively to each group. This applies to slice() and all the slice_* helper functions (as in many other dplyr functions, but not in arrange()).

# select the first 2 rows within each group of "hair_color"
starwars2 %>% 
  group_by(hair_color) %>% 
  slice_head(n = 2)

  # A tibble: 18 × 5
  # Groups:   hair_color [12]
    name              height  mass hair_color    skin_color
    <chr>              <int> <dbl> <chr>         <chr>     
  1 Mon Mothma           150    NA auburn        fair      
  2 Wilhuff Tarkin       180    NA auburn, grey  fair      
  3 Obi-Wan Kenobi       182    77 auburn, white fair      
  4 Biggs Darklighter    183    84 black         light     
  # ℹ 14 more rows
…
